﻿{
  "profiles": {
    "Authorization.Users.Api": {
      "commandName": "Project",
      "launchBrowser": true,
      "launchUrl": "site/index",
      "applicationUrl": "https://localhost:5003;http://localhost:5002",
      "environmentVariables": {
        "ASPNETCORE_ENVIRONMENT": "Development"
      }
    }
  }
}
