﻿{
  "profiles": {
    "AuthSystem.IdentityServer": {
      "commandName": "Project",
      "launchBrowser": true,
      "applicationUrl": "https://localhost:5005;http://localhost:5004",
      "environmentVariables": {
        "ASPNETCORE_ENVIRONMENT": "Development"
      }
    }
  }
}
